{
  "data": [
    {
    	"establish-name" : "",
    	"establish-address" : "",
    	"establish-phone" : "",
    	"establish-time" : "",
		  "post-image": "images/upload/img-popup-feed.jpg",
		  "short-description": "Sitting in my favourite cafe #selfishgene @caltex",
		  "full-description": "Sitting in my favourite cafe #selfishgene @caltex",
		  "user-image": "images/upload/img-32.jpg",
		  "user-name": "Philip haydon",
		  "feed-time": "05/05/2015 19:40:00",
		  "social-name": "sf-facebook",
      "location": {
        "latitude": 45.471475102,
        "longitude": 9.184745562
      }
		},
    {
    	"establish-name" : "",
    	"establish-address" : "",
    	"establish-phone" : "",
    	"establish-time" : "",
    	"post-image" : "",
		  "short-description": "#Caltex #Techron in a Bottle fuel cleaning system lauch, hosted by #FHM Hot Babe Rizza Diaz.",
		  "full-description": "#Caltex #Techron in a Bottle fuel cleaning system lauch, hosted by #FHM Hot Babe Rizza Diaz.",
		  "user-image": "images/upload/img-32.jpg",
		  "user-name": "John Terry",
		  "feed-time": "05/15/2015 20:00:50",
		  "social-name": "sf-twitter",
      "location": {
        "latitude": 45.470903008,
        "longitude": 9.193016873
      }
		},
		{
    	"establish-name" : "",
    	"establish-address" : "",
    	"establish-phone" : "",
    	"establish-time" : "",
		  "post-image": "images/upload/img-popup-feed.jpg",
		  "short-description": "#dsff @fdsf http://bit.ly ...",
		  "full-description": "#dsff @fdsf http://bit.ly ...",
		  "user-image": "images/upload/img-32.jpg",
		  "user-name": "Philip haydon",
		  "feed-time": "05/05/2015 19:40:00",
		  "social-name": "sf-instagram",
      "location": {
        "latitude": 45.468697592,
        "longitude": 9.182814142
      }
		},
    {
    	"establish-name" : "",
    	"establish-address" : "",
    	"establish-phone" : "",
    	"establish-time" : "",
		  "post-image": "images/upload/img-popup-feed.jpg",
		  "short-description": "Sitting in my favourite cafe #selfishgene @caltex",
		  "full-description": "Sitting in my favourite cafe #selfishgene @caltex",
		  "user-image": "images/upload/img-32.jpg",
		  "user-name": "Philip haydon",
		  "feed-time": "05/05/2015 19:40:00",
		  "social-name": "sf-facebook",
      "location": {
        "latitude": 45.471456818,
        "longitude": 9.184725191
      }
		},
    {
    	"establish-name" : "",
    	"establish-address" : "",
    	"establish-phone" : "",
    	"establish-time" : "",
    	"post-image" : "",
		  "short-description": "#Caltex #Techron in a Bottle fuel cleaning system lauch, hosted by #FHM Hot Babe Rizza Diaz.",
		  "full-description": "#Caltex #Techron in a Bottle fuel cleaning system lauch, hosted by #FHM Hot Babe Rizza Diaz.",
		  "user-image": "images/upload/img-32.jpg",
		  "user-name": "John Terry",
		  "feed-time": "05/15/2015 20:00:50",
		  "social-name": "sf-twitter",
      "location": {
        "latitude":45.471483767,
        "longitude":9.184709683
      }
		},
		{
    	"establish-name" : "",
    	"establish-address" : "",
    	"establish-phone" : "",
    	"establish-time" : "",
		  "post-image": "images/upload/img-popup-feed.jpg",
		  "short-description": "#dsff @fdsf http://bit.ly ...",
		  "full-description": "#dsff @fdsf http://bit.ly ...",
		  "user-image": "images/upload/img-32.jpg",
		  "user-name": "Philip haydon",
		  "feed-time": "05/05/2015 19:40:00",
		  "social-name": "sf-instagram",
      "location": {
        "latitude":45.471468422,
        "longitude":9.184721488
      }
		},
		{
    	"establish-name" : "",
    	"establish-address" : "",
    	"establish-phone" : "",
    	"establish-time" : "",
		  "post-image": "images/upload/img-popup-feed.jpg",
		  "short-description": "Sitting in my favourite cafe #selfishgene @caltex",
		  "full-description": "Sitting in my favourite cafe #selfishgene @caltex",
		  "user-image": "images/upload/img-32.jpg",
		  "user-name": "Philip haydon",
		  "feed-time": "05/05/2015 19:40:00",
		  "social-name": "sf-facebook",
      "location": {
        "latitude":45.459228382,
        "longitude":9.195795022
      }
		},
    {
    	"establish-name" : "",
    	"establish-address" : "",
    	"establish-phone" : "",
    	"establish-time" : "",
    	"post-image" : "",
		  "short-description": "#Caltex #Techron in a Bottle fuel cleaning system lauch, hosted by #FHM Hot Babe Rizza Diaz.",
		  "full-description": "fdsfsdf sdfs dfsdfsdfdf sdfdsf",
		  "user-image": "images/upload/img-32.jpg",
		  "user-name": "John Terry",
		  "feed-time": "05/15/2015 20:00:50",
		  "social-name": "sf-twitter",
      "location": {
        "latitude":45.471292001,
        "longitude":9.185490149
      }
		},
		{
    	"establish-name" : "",
    	"establish-address" : "",
    	"establish-phone" : "",
    	"establish-time" : "",
		  "post-image": "images/upload/img-popup-feed.jpg",
		  "short-description": "#dsff @fdsf http://bit.ly ...",
		  "full-description": "fdsfsdf sdfs dfsdfsdfdf sdfdsf",
		  "user-image": "images/upload/img-32.jpg",
		  "user-name": "Philip haydon",
		  "feed-time": "05/05/2015 19:40:00",
		  "social-name": "sf-instagram",
      "location": {
        "latitude":45.468502377,
        "longitude":9.196009074
      }
		},
		{
    	"establish-name" : "",
    	"establish-address" : "",
    	"establish-phone" : "",
    	"establish-time" : "",
		  "post-image": "images/upload/img-popup-feed.jpg",
		  "short-description": "Sitting in my favourite cafe #selfishgene @caltex",
		  "full-description": "fdsfsdf sdfs dfsdfsdfdf sdfdsf",
		  "user-image": "images/upload/img-32.jpg",
		  "user-name": "Philip haydon",
		  "feed-time": "05/05/2015 19:40:00",
		  "social-name": "sf-facebook",
      "location": {
        "latitude":45.46870305,
        "longitude":9.18539277
      }
		},
    {
    	"establish-name" : "",
    	"establish-address" : "",
    	"establish-phone" : "",
    	"establish-time" : "",
    	"post-image" : "",
		  "short-description": "#Caltex #Techron in a Bottle fuel cleaning system lauch, hosted by #FHM Hot Babe Rizza Diaz.",
		  "full-description": "fdsfsdf sdfs dfsdfsdfdf sdfdsf",
		  "user-image": "images/upload/img-32.jpg",
		  "user-name": "John Terry",
		  "feed-time": "05/15/2015 20:00:50",
		  "social-name": "sf-twitter"
		},
		{
    	"establish-name" : "",
    	"establish-address" : "",
    	"establish-phone" : "",
    	"establish-time" : "",
		  "post-image": "images/upload/img-popup-feed.jpg",
		  "short-description": "#dsff @fdsf http://bit.ly ...",
		  "full-description": "fdsfsdf sdfs dfsdfsdfdf sdfdsf",
		  "user-image": "images/upload/img-32.jpg",
		  "user-name": "Philip haydon",
		  "feed-time": "05/05/2015 19:40:00",
		  "social-name": "sf-instagram"
		},
		{
    	"establish-name" : "",
    	"establish-address" : "",
    	"establish-phone" : "",
    	"establish-time" : "",
		  "post-image": "images/upload/img-popup-feed.jpg",
		  "short-description": "Sitting in my favourite cafe #selfishgene @caltex",
		  "full-description": "fdsfsdf sdfs dfsdfsdfdf sdfdsf",
		  "user-image": "images/upload/img-32.jpg",
		  "user-name": "Philip haydon",
		  "feed-time": "05/05/2015 19:40:00",
		  "social-name": "sf-facebook"
		},
    {
    	"establish-name" : "",
    	"establish-address" : "",
    	"establish-phone" : "",
    	"establish-time" : "",
    	"post-image": "",
		  "short-description": "#Caltex #Techron in a Bottle fuel cleaning system lauch, hosted by #FHM Hot Babe Rizza Diaz.",
		  "full-description": "fdsfsdf sdfs dfsdfsdfdf sdfdsf",
		  "user-image": "images/upload/img-32.jpg",
		  "user-name": "John Terry",
		  "feed-time": "05/15/2015 20:00:50",
		  "social-name": "sf-twitter"
		},
		{
    	"establish-name" : "",
    	"establish-address" : "",
    	"establish-phone" : "",
    	"establish-time" : "",
		  "post-image": "images/upload/img-popup-feed.jpg",
		  "short-description": "#dsff @fdsf http://bit.ly ...",
		  "full-description": "fdsfsdf sdfs dfsdfsdfdf sdfdsf",
		  "user-image": "images/upload/img-32.jpg",
		  "user-name": "Philip haydon",
		  "feed-time": "05/05/2015 19:40:00",
		  "social-name": "sf-instagram"
		},
		{
    	"establish-name" : "",
    	"establish-address" : "",
    	"establish-phone" : "",
    	"establish-time" : "",
		  "post-image": "images/upload/img-popup-feed.jpg",
		  "short-description": "Sitting in my favourite cafe #selfishgene @caltex",
		  "full-description": "fdsfsdf sdfs dfsdfsdfdf sdfdsf",
		  "user-image": "images/upload/img-32.jpg",
		  "user-name": "Philip haydon",
		  "feed-time": "05/05/2015 19:40:00",
		  "social-name": "sf-facebook"
		},
    {
    	"establish-name" : "",
    	"establish-address" : "",
    	"establish-phone" : "",
    	"establish-time" : "",
    	"post-image": "",
		  "short-description": "#Caltex #Techron in a Bottle fuel cleaning system lauch, hosted by #FHM Hot Babe Rizza Diaz.",
		  "full-description": "fdsfsdf sdfs dfsdfsdfdf sdfdsf",
		  "user-image": "images/upload/img-32.jpg",
		  "user-name": "John Terry",
		  "feed-time": "05/15/2015 20:00:50",
		  "social-name": "sf-twitter"
		},
		{
    	"establish-name" : "",
    	"establish-address" : "",
    	"establish-phone" : "",
    	"establish-time" : "",
		  "post-image": "images/upload/img-popup-feed.jpg",
		  "short-description": "#dsff @fdsf http://bit.ly ...",
		  "full-description": "fdsfsdf sdfs dfsdfsdfdf sdfdsf",
		  "user-image": "images/upload/img-32.jpg",
		  "user-name": "Philip haydon",
		  "feed-time": "05/05/2015 19:40:00",
		  "social-name": "sf-instagram"
		},
		{
    	"establish-name" : "",
    	"establish-address" : "",
    	"establish-phone" : "",
    	"establish-time" : "",
		  "post-image": "images/upload/img-popup-feed.jpg",
		  "short-description": "Sitting in my favourite cafe #selfishgene @caltex",
		  "full-description": "fdsfsdf sdfs dfsdfsdfdf sdfdsf",
		  "user-image": "images/upload/img-32.jpg",
		  "user-name": "Philip haydon",
		  "feed-time": "05/05/2015 19:40:00",
		  "social-name": "sf-facebook"
		},
    {
    	"establish-name" : "",
    	"establish-address" : "",
    	"establish-phone" : "",
    	"establish-time" : "",
    	"post-image": "",
		  "short-description": "#Caltex #Techron in a Bottle fuel cleaning system lauch, hosted by #FHM Hot Babe Rizza Diaz.",
		  "full-description": "fdsfsdf sdfs dfsdfsdfdf sdfdsf",
		  "user-image": "images/upload/img-32.jpg",
		  "user-name": "John Terry",
		  "feed-time": "05/15/2015 20:00:50",
		  "social-name": "sf-twitter"
		},
		{
    	"establish-name" : "",
    	"establish-address" : "",
    	"establish-phone" : "",
    	"establish-time" : "",
		  "post-image": "images/upload/img-popup-feed.jpg",
		  "short-description": "#dsff @fdsf http://bit.ly ...",
		  "full-description": "fdsfsdf sdfs dfsdfsdfdf sdfdsf",
		  "user-image": "images/upload/img-32.jpg",
		  "user-name": "Philip haydon",
		  "feed-time": "05/05/2015 19:40:00",
		  "social-name": "sf-instagram"
		},
		{
    	"establish-name" : "",
    	"establish-address" : "",
    	"establish-phone" : "",
    	"establish-time" : "",
		  "post-image": "images/upload/img-popup-feed.jpg",
		  "short-description": "Sitting in my favourite cafe #selfishgene @caltex",
		  "full-description": "fdsfsdf sdfs dfsdfsdfdf sdfdsf",
		  "user-image": "images/upload/img-32.jpg",
		  "user-name": "Philip haydon",
		  "feed-time": "05/05/2015 19:40:00",
		  "social-name": "sf-facebook"
		},
    {
    	"establish-name" : "",
    	"establish-address" : "",
    	"establish-phone" : "",
    	"establish-time" : "",
    	"post-image": "",
		  "short-description": "#Caltex #Techron in a Bottle fuel cleaning system lauch, hosted by #FHM Hot Babe Rizza Diaz.",
		  "full-description": "fdsfsdf sdfs dfsdfsdfdf sdfdsf",
		  "user-image": "images/upload/img-32.jpg",
		  "user-name": "John Terry",
		  "feed-time": "05/15/2015 20:00:50",
		  "social-name": "sf-twitter"
		},
		{
    	"establish-name" : "",
    	"establish-address" : "",
    	"establish-phone" : "",
    	"establish-time" : "",
		  "post-image": "images/upload/img-popup-feed.jpg",
		  "short-description": "#dsff @fdsf http://bit.ly ...",
		  "full-description": "fdsfsdf sdfs dfsdfsdfdf sdfdsf",
		  "user-image": "images/upload/img-32.jpg",
		  "user-name": "Philip haydon",
		  "feed-time": "05/05/2015 19:40:00",
		  "social-name": "sf-instagram"
		}
  ],
  "paging": "data/ajaxFeed2.json"
}
